Updating cd3bce3..6e2b837
Fast-forward
 .travis.yml                                   |   4 ++--
 DESCRIPTION                                   |   2 +-
 NEWS.md                                       |   9 ++++++---
 inst/extdata/for_vignette/seurat_object.RData | Bin 10276609 -> 10277542 bytes
 vignettes/single_cell_vignette.Rmd            |  14 +++++++-------
 5 files changed, 16 insertions(+), 13 deletions(-)
